#,id,x,y,z
1,,0.14543975547632826,117.3747190089184,37.25872983005599
2,,4.0250895920313035,21.49942552662587,86.04893480245421
3,,-27.13047153885769,111.43302476012619,32.23177410513826
4,,5.2135171604878,61.50738755430942,82.78396139814005
5,,-38.97573077714387,58.240647887647214,60.58678888185974
6,,-58.306727216941646,66.11499917866017,16.913999080424396
7,,-64.86530998321916,44.45831995322888,-27.510869002807333
8,,-58.71810717891278,34.91034012778533,34.80742492077544
9,,-20.667485162817066,22.859277931726936,78.29365677288737
10,,-47.59348687747055,-4.930530618980271,55.021772790979824
11,,-65.48269726512459,16.088703317512497,-7.481400226649253
12,,-58.99237313289114,-9.195547393641476,-49.76083244943583
13,,-56.677994063748365,-20.441742031044186,18.288487938883165
14,,-18.416842965250783,-37.871536283095026,63.661747094358084
15,,10.965121197962493,-60.61825921750784,41.76769271438695
16,,-31.64605230405128,-53.84292691578395,20.26252199642022
17,,-47.32496655125289,-37.6213357784807,-20.39866696913255
18,,-10.088555511890718,-64.14312871087517,-30.505565886192493
19,,18.744235951036117,-69.32282654458726,-27.413139545421956
20,,44.727492444698,-63.146003031240696,-25.643493498800837
21,,59.78212217268035,-49.82859005673768,28.154825225976168
22,,78.68999860533296,-33.06803335084328,-18.01924154578034
23,,86.63267240864957,7.892170715511185,-45.08612303007438
24,,82.37507322162847,-13.921703631279257,24.68333003476331
25,,36.40110621097695,-35.7131416937566,68.08872633572204
26,,6.459941673000097,-7.869544853054322,83.2908220886238
27,,66.9070065664542,1.4964022243827912,60.42320779131603
28,,89.03256158623978,24.074651170060676,2.3966557788418967
29,,84.52021249376207,58.78559427047804,-18.56436130231794
30,,73.77868630818253,43.12343802278761,43.73639911672661
31,,32.734207563275966,27.98066621126705,81.77556155109315
32,,48.45243205200627,64.84883831925913,66.60791346185113
33,,70.56321486151656,78.92960345986181,20.137159900884342
34,,26.387398141631174,116.92715375173421,38.05507181402368
35,,-47.78684799895064,88.7525437872689,26.603456421411515
36,,-31.739979401831995,89.17232401060065,56.34014969960696
37,,0.7378777384396358,90.28934020785556,70.99265269803243
38,,-22.150700876669198,53.54790798108078,74.9412688440967
39,,-50.21677260159492,65.75616901423584,41.772193245808396
40,,-65.58475694871686,39.752303292414084,5.553038158786947
41,,-43.4658645122219,26.679414344178838,60.5096830901737
42,,-23.46216613513821,-8.531854642901322,74.51919326089529
43,,-61.665150485011104,3.7916350769748703,25.527879079852696
44,,-60.24661913876364,-10.621478405246165,-10.387675778251591
45,,-42.68860268406686,-32.93911495013114,44.7732134766745
46,,-7.823826324687566,-61.37686321719926,39.6541474358884
47,,-41.66232890019064,-45.683742956951534,2.2976704230852576
48,,-29.88956792053517,-55.46829913959672,-22.646664212724232
49,,-12.564526019529719,-64.92239629207245,2.9446711164056367
50,,17.513703633535805,-69.20059056216445,12.88585960923485
51,,42.60985482555211,-65.31782993991155,7.040348175680656
52,,64.19092508910799,-50.023715709434384,-17.564340197016733
53,,73.0628840688847,-39.3074317931362,7.8368705531424325
54,,35.153762696650915,-56.43158005768524,45.14748480199429
55,,6.4594506195045955,-39.604431070672774,70.27051137929065
56,,67.4073269977671,-28.255938236447093,48.967231365941345
57,,87.56312039764114,-5.481632069021089,-10.5002671320024
58,,83.41441901030453,14.776485940112622,34.632732365384896
59,,33.23764888672489,-5.903592816046995,80.8237523775986
60,,56.31850576533173,36.34086601938759,67.17796557921857
61,,82.63608508768368,51.85324206013475,10.690886734614288
62,,61.96025670641011,75.01121507895903,47.91577140248376
63,,53.200970373950625,98.92237425762471,33.384955404963435
64,,31.987618209774094,95.79585926649337,64.39545276065041
65,,27.120670458258164,59.119994633409135,82.23859397608547