# id x y z
EEG GND 4.264298821583356 128.1669566582723 26.833848048946034
EEG REF 6.08995701931542 40.96883907203214 98.07804164427279
EEG Fp1 -28.46157359775353 122.24885611811277 26.399755539889433
EEG Fz -0.05543783134702451 74.88922865812646 88.99084571753673
EEG F3 -46.996818553672256 70.69097173880657 65.24344151909222
EEG F7 -67.5362335777469 74.20173761439354 21.11354814982096
EEG FT9 -76.5890181872286 45.94108884031613 -15.82504157624981
EEG FC5 -68.34898108094886 44.80249639622622 40.591447709857704
EEG FC1 -26.892476894182916 38.271851415464766 88.12442330047308
EEG C3 -56.21830283348574 2.3742802720944667 66.7290765107901
EEG T7 -76.31282197826022 17.36537953208628 2.228384772213076
EEG TP9 -70.68731319951594 -16.365992476212114 -37.38375267717782
EEG CP5 -68.1741439105978 -19.90643139599905 25.67167541595466
EEG CP1 -25.82915235685407 -34.61844124977222 78.28084603180716
EEG Pz 6.276114304098918 -63.20028220460176 57.116800812191606
EEG P3 -39.820056766204786 -56.97678351003589 34.14441623765442
EEG P7 -59.26026380527391 -39.28582441268102 -10.505377351004704
EEG O1 -16.26238996260795 -76.61665983387334 -12.546587660669537
EEG Oz 12.979025511182723 -81.15993987503185 -9.930700639794217
EEG O2 45.30084334799993 -73.80423098468867 -9.852541626642427
EEG P4 60.22273467833139 -54.38490778825246 39.98786169094006
EEG P8 82.15396238384736 -39.87464957011309 -9.366843547783958
EEG TP10 93.31289458703007 -8.400991616950677 -36.878248867509804
EEG CP6 86.37762232166082 -18.133196219485995 28.66379640648944
EEG CP2 43.07476144709884 -30.210086514418066 80.79299618750572
EEG Cz 7.982662937801379 0.26723156730841424 97.18489838420388
EEG C4 70.27587220226297 10.722885929288779 68.23507130146285
EEG T8 93.34999950873768 23.57054143832336 1.5975784240076223
EEG FT10 90.01641365179971 53.55809191070982 -19.19526398871583
EEG FC6 81.25104859282423 49.41250347820905 37.78719208060028
EEG FC2 39.43645540439313 39.03702476863393 86.83090788048213
EEG F4 56.220724496280724 76.7535854942746 61.117243117753176
EEG F8 76.82139533624427 76.39620909862948 17.178687530772976
EEG Fp2 35.06316190275915 122.79324824572436 24.17524203530466
EEG AF7 -54.52407073298495 100.97276679346805 24.873558232162473
EEG AF3 -34.278295589926884 106.4252027840147 55.3798524464765
EEG AFz 2.240277637844194 109.98103907249832 66.4343388821831
EEG F1 -27.034403471637294 71.7213575162908 81.29973262985251
EEG F5 -59.2943960995828 75.60484189630188 44.876064535055754
EEG FT7 -76.06969436629161 49.432769331991395 13.828286492493746
EEG FC3 -52.87071033273078 42.68098015532942 67.86764827530328
EEG C1 -26.921662087784103 5.69368126024176 90.44550560033218
EEG C5 -71.99989560727202 8.250455456223023 37.967153301577774
EEG TP7 -72.26106036721664 -12.565091087605879 -2.7456123631323877
EEG CP3 -53.64193369413151 -29.435496201967567 56.89670486135406
EEG P1 -24.766216042598362 -57.04666507452805 59.22568001198781
EEG P5 -53.44697723918195 -47.71890930863174 15.78305974119548
EEG PO7 -39.89677165390442 -60.896117361699936 -10.78108532919368
EEG PO3 -19.113926368107865 -74.39603127991313 17.516576855412815
EEG POz 12.022615821955181 -76.1339998756838 26.79436074285271
EEG PO4 46.08787353109694 -73.28787892025156 17.591089196680677
EEG PO8 67.31711818793819 -61.146824115164065 -7.36420724875309
EEG P6 76.93757290660425 -44.470244800537415 17.033814940743234
EEG P2 40.82202494782514 -57.87424995955263 57.79782414978599
EEG CPz 9.089456228231288 -35.63201404391722 86.53835946039553
EEG CP4 70.71703518129468 -25.688200505631784 61.148458705992105
EEG TP8 93.73681179051749 -11.71067375327749 -1.904811070305243
EEG C6 89.41152793615248 13.653600831607804 37.042507435211554
EEG C2 38.73732752456701 4.038446233972479 91.89218943313497
EEG FC4 64.53107123204977 46.48379548944621 66.84604760994361
EEG FT8 88.71663389972834 49.481613210799935 8.354807874468769
EEG F6 66.63585885918769 81.86005162316172 42.32037232214615
EEG AF8 61.463847363255425 102.09822669242158 22.449217346044694
EEG AF4 42.98962291427972 105.66529643534955 53.61908119599109
#
